I like trains!

                       (+++++++++++)
                    (++++)
                 (+++)
               (+++)
              (++)
              [~]
              | | (~)  (~)  (~)    /~~~~~~~~~~~~
           /~~~~~~~~~~~~~~~~~~~~~~~  [~_~_] |    * * * /~~~~~~~~~~~|
       	 [|  %___________________           | |~~~~~~~~            |
   o       \[___] ___   ___   ___\  No. 4   | |   A.T. & S.F.      |
  /|\   /// [___+/-+-\-/-+-\-/-+ \\_________|=|____________________|= 
  / \ //// @-=-@ \___/ \___/ \___/  @-==-@      @-==-@      @-==-@
 ~~~~~~~~~~~~~~~~~~~~~~~~~~~~~~~~~~~~~~~~~~~~~~~~~~~~~~~~~~~~~~~~~~~~~